^C:\USERS\MINJU\DOCUMENTS\VISUAL STUDIO 2013\PROJECTS\MASS-SPRING SYSTEM\MASS-SPRING SYSTEM\FILEMANAGER.CPP
/c /Zi /nologo /W3 /WX- /sdl /O2 /Oi /Oy- /GL /D _MBCS /Gm- /EHsc /MD /GS /Gy /fp:precise /Zc:wchar_t /Zc:forScope /Fo"RELEASE\\" /Fd"RELEASE\VC120.PDB" /Gd /TP /analyze- C:\USERS\MINJU\DOCUMENTS\VISUAL STUDIO 2013\PROJECTS\MASS-SPRING SYSTEM\MASS-SPRING SYSTEM\FILEMANAGER.CPP
^C:\USERS\MINJU\DOCUMENTS\VISUAL STUDIO 2013\PROJECTS\MASS-SPRING SYSTEM\MASS-SPRING SYSTEM\SPRING.CPP
/c /Zi /nologo /W3 /WX- /sdl /O2 /Oi /Oy- /GL /D _MBCS /Gm- /EHsc /MD /GS /Gy /fp:precise /Zc:wchar_t /Zc:forScope /Fo"RELEASE\\" /Fd"RELEASE\VC120.PDB" /Gd /TP /analyze- C:\USERS\MINJU\DOCUMENTS\VISUAL STUDIO 2013\PROJECTS\MASS-SPRING SYSTEM\MASS-SPRING SYSTEM\SPRING.CPP
^C:\USERS\MINJU\DOCUMENTS\VISUAL STUDIO 2013\PROJECTS\MASS-SPRING SYSTEM\MASS-SPRING SYSTEM\VECTOR.CPP
/c /Zi /nologo /W3 /WX- /sdl /O2 /Oi /Oy- /GL /D _MBCS /Gm- /EHsc /MD /GS /Gy /fp:precise /Zc:wchar_t /Zc:forScope /Fo"RELEASE\\" /Fd"RELEASE\VC120.PDB" /Gd /TP /analyze- C:\USERS\MINJU\DOCUMENTS\VISUAL STUDIO 2013\PROJECTS\MASS-SPRING SYSTEM\MASS-SPRING SYSTEM\VECTOR.CPP
^C:\USERS\MINJU\DOCUMENTS\VISUAL STUDIO 2013\PROJECTS\MASS-SPRING SYSTEM\MASS-SPRING SYSTEM\POINT.CPP
/c /Zi /nologo /W3 /WX- /sdl /O2 /Oi /Oy- /GL /D _MBCS /Gm- /EHsc /MD /GS /Gy /fp:precise /Zc:wchar_t /Zc:forScope /Fo"RELEASE\\" /Fd"RELEASE\VC120.PDB" /Gd /TP /analyze- C:\USERS\MINJU\DOCUMENTS\VISUAL STUDIO 2013\PROJECTS\MASS-SPRING SYSTEM\MASS-SPRING SYSTEM\POINT.CPP
^C:\USERS\MINJU\DOCUMENTS\VISUAL STUDIO 2013\PROJECTS\MASS-SPRING SYSTEM\MASS-SPRING SYSTEM\MAIN.CPP
/c /Zi /nologo /W3 /WX- /sdl /O2 /Oi /Oy- /GL /D _MBCS /Gm- /EHsc /MD /GS /Gy /fp:precise /Zc:wchar_t /Zc:forScope /Fo"RELEASE\\" /Fd"RELEASE\VC120.PDB" /Gd /TP /analyze- C:\USERS\MINJU\DOCUMENTS\VISUAL STUDIO 2013\PROJECTS\MASS-SPRING SYSTEM\MASS-SPRING SYSTEM\MAIN.CPP
^C:\USERS\MINJU\DOCUMENTS\VISUAL STUDIO 2013\PROJECTS\MASS-SPRING SYSTEM\MASS-SPRING SYSTEM\SIMULATOR.CPP
/c /Zi /nologo /W3 /WX- /sdl /O2 /Oi /Oy- /GL /D _MBCS /Gm- /EHsc /MD /GS /Gy /fp:precise /Zc:wchar_t /Zc:forScope /Fo"RELEASE\\" /Fd"RELEASE\VC120.PDB" /Gd /TP /analyze- C:\USERS\MINJU\DOCUMENTS\VISUAL STUDIO 2013\PROJECTS\MASS-SPRING SYSTEM\MASS-SPRING SYSTEM\SIMULATOR.CPP
^C:\USERS\MINJU\DOCUMENTS\VISUAL STUDIO 2013\PROJECTS\MASS-SPRING SYSTEM\MASS-SPRING SYSTEM\MASSSPRINGSYSTEM.CPP
/c /Zi /nologo /W3 /WX- /sdl /O2 /Oi /Oy- /GL /D _MBCS /Gm- /EHsc /MD /GS /Gy /fp:precise /Zc:wchar_t /Zc:forScope /Fo"RELEASE\\" /Fd"RELEASE\VC120.PDB" /Gd /TP /analyze- C:\USERS\MINJU\DOCUMENTS\VISUAL STUDIO 2013\PROJECTS\MASS-SPRING SYSTEM\MASS-SPRING SYSTEM\MASSSPRINGSYSTEM.CPP
