^C:\USERS\MINJU\DOCUMENTS\VISUAL STUDIO 2013\PROJECTS\MASS-SPRING SYSTEM\MASS-SPRING SYSTEM\FILEMANAGER.CPP|C:\USERS\MINJU\DOCUMENTS\VISUAL STUDIO 2013\PROJECTS\MASS-SPRING SYSTEM\MASS-SPRING SYSTEM\MAIN.CPP|C:\USERS\MINJU\DOCUMENTS\VISUAL STUDIO 2013\PROJECTS\MASS-SPRING SYSTEM\MASS-SPRING SYSTEM\MASSSPRINGSYSTEM.CPP|C:\USERS\MINJU\DOCUMENTS\VISUAL STUDIO 2013\PROJECTS\MASS-SPRING SYSTEM\MASS-SPRING SYSTEM\POINT.CPP|C:\USERS\MINJU\DOCUMENTS\VISUAL STUDIO 2013\PROJECTS\MASS-SPRING SYSTEM\MASS-SPRING SYSTEM\SIMULATOR.CPP|C:\USERS\MINJU\DOCUMENTS\VISUAL STUDIO 2013\PROJECTS\MASS-SPRING SYSTEM\MASS-SPRING SYSTEM\SPRING.CPP|C:\USERS\MINJU\DOCUMENTS\VISUAL STUDIO 2013\PROJECTS\MASS-SPRING SYSTEM\MASS-SPRING SYSTEM\VECTOR.CPP
C:\USERS\MINJU\DOCUMENTS\VISUAL STUDIO 2013\PROJECTS\MASS-SPRING SYSTEM\MASS-SPRING SYSTEM\RELEASE\VC120.PDB
C:\USERS\MINJU\DOCUMENTS\VISUAL STUDIO 2013\PROJECTS\MASS-SPRING SYSTEM\MASS-SPRING SYSTEM\RELEASE\VECTOR.OBJ
C:\USERS\MINJU\DOCUMENTS\VISUAL STUDIO 2013\PROJECTS\MASS-SPRING SYSTEM\MASS-SPRING SYSTEM\RELEASE\SPRING.OBJ
C:\USERS\MINJU\DOCUMENTS\VISUAL STUDIO 2013\PROJECTS\MASS-SPRING SYSTEM\MASS-SPRING SYSTEM\RELEASE\SIMULATOR.OBJ
C:\USERS\MINJU\DOCUMENTS\VISUAL STUDIO 2013\PROJECTS\MASS-SPRING SYSTEM\MASS-SPRING SYSTEM\RELEASE\POINT.OBJ
C:\USERS\MINJU\DOCUMENTS\VISUAL STUDIO 2013\PROJECTS\MASS-SPRING SYSTEM\MASS-SPRING SYSTEM\RELEASE\MASSSPRINGSYSTEM.OBJ
C:\USERS\MINJU\DOCUMENTS\VISUAL STUDIO 2013\PROJECTS\MASS-SPRING SYSTEM\MASS-SPRING SYSTEM\RELEASE\MAIN.OBJ
C:\USERS\MINJU\DOCUMENTS\VISUAL STUDIO 2013\PROJECTS\MASS-SPRING SYSTEM\MASS-SPRING SYSTEM\RELEASE\FILEMANAGER.OBJ
^C:\USERS\MINJU\DOCUMENTS\VISUAL STUDIO 2013\PROJECTS\MASS-SPRING SYSTEM\MASS-SPRING SYSTEM\FILEMANAGER.CPP
C:\USERS\MINJU\DOCUMENTS\VISUAL STUDIO 2013\PROJECTS\MASS-SPRING SYSTEM\MASS-SPRING SYSTEM\RELEASE\VC120.PDB
^C:\USERS\MINJU\DOCUMENTS\VISUAL STUDIO 2013\PROJECTS\MASS-SPRING SYSTEM\MASS-SPRING SYSTEM\MAIN.CPP|C:\USERS\MINJU\DOCUMENTS\VISUAL STUDIO 2013\PROJECTS\MASS-SPRING SYSTEM\MASS-SPRING SYSTEM\MASSSPRINGSYSTEM.CPP|C:\USERS\MINJU\DOCUMENTS\VISUAL STUDIO 2013\PROJECTS\MASS-SPRING SYSTEM\MASS-SPRING SYSTEM\POINT.CPP|C:\USERS\MINJU\DOCUMENTS\VISUAL STUDIO 2013\PROJECTS\MASS-SPRING SYSTEM\MASS-SPRING SYSTEM\SIMULATOR.CPP|C:\USERS\MINJU\DOCUMENTS\VISUAL STUDIO 2013\PROJECTS\MASS-SPRING SYSTEM\MASS-SPRING SYSTEM\SPRING.CPP
C:\USERS\MINJU\DOCUMENTS\VISUAL STUDIO 2013\PROJECTS\MASS-SPRING SYSTEM\MASS-SPRING SYSTEM\RELEASE\VC120.PDB
C:\USERS\MINJU\DOCUMENTS\VISUAL STUDIO 2013\PROJECTS\MASS-SPRING SYSTEM\MASS-SPRING SYSTEM\RELEASE\MAIN.OBJ
C:\USERS\MINJU\DOCUMENTS\VISUAL STUDIO 2013\PROJECTS\MASS-SPRING SYSTEM\MASS-SPRING SYSTEM\RELEASE\SPRING.OBJ
C:\USERS\MINJU\DOCUMENTS\VISUAL STUDIO 2013\PROJECTS\MASS-SPRING SYSTEM\MASS-SPRING SYSTEM\RELEASE\SIMULATOR.OBJ
C:\USERS\MINJU\DOCUMENTS\VISUAL STUDIO 2013\PROJECTS\MASS-SPRING SYSTEM\MASS-SPRING SYSTEM\RELEASE\POINT.OBJ
C:\USERS\MINJU\DOCUMENTS\VISUAL STUDIO 2013\PROJECTS\MASS-SPRING SYSTEM\MASS-SPRING SYSTEM\RELEASE\MASSSPRINGSYSTEM.OBJ
^C:\USERS\MINJU\DOCUMENTS\VISUAL STUDIO 2013\PROJECTS\MASS-SPRING SYSTEM\MASS-SPRING SYSTEM\SPRING.CPP
C:\USERS\MINJU\DOCUMENTS\VISUAL STUDIO 2013\PROJECTS\MASS-SPRING SYSTEM\MASS-SPRING SYSTEM\RELEASE\VC120.PDB
^C:\USERS\MINJU\DOCUMENTS\VISUAL STUDIO 2013\PROJECTS\MASS-SPRING SYSTEM\MASS-SPRING SYSTEM\MAIN.CPP|C:\USERS\MINJU\DOCUMENTS\VISUAL STUDIO 2013\PROJECTS\MASS-SPRING SYSTEM\MASS-SPRING SYSTEM\MASSSPRINGSYSTEM.CPP|C:\USERS\MINJU\DOCUMENTS\VISUAL STUDIO 2013\PROJECTS\MASS-SPRING SYSTEM\MASS-SPRING SYSTEM\POINT.CPP|C:\USERS\MINJU\DOCUMENTS\VISUAL STUDIO 2013\PROJECTS\MASS-SPRING SYSTEM\MASS-SPRING SYSTEM\SIMULATOR.CPP|C:\USERS\MINJU\DOCUMENTS\VISUAL STUDIO 2013\PROJECTS\MASS-SPRING SYSTEM\MASS-SPRING SYSTEM\VECTOR.CPP
C:\USERS\MINJU\DOCUMENTS\VISUAL STUDIO 2013\PROJECTS\MASS-SPRING SYSTEM\MASS-SPRING SYSTEM\RELEASE\VC120.PDB
C:\USERS\MINJU\DOCUMENTS\VISUAL STUDIO 2013\PROJECTS\MASS-SPRING SYSTEM\MASS-SPRING SYSTEM\RELEASE\MAIN.OBJ
C:\USERS\MINJU\DOCUMENTS\VISUAL STUDIO 2013\PROJECTS\MASS-SPRING SYSTEM\MASS-SPRING SYSTEM\RELEASE\VECTOR.OBJ
C:\USERS\MINJU\DOCUMENTS\VISUAL STUDIO 2013\PROJECTS\MASS-SPRING SYSTEM\MASS-SPRING SYSTEM\RELEASE\SIMULATOR.OBJ
C:\USERS\MINJU\DOCUMENTS\VISUAL STUDIO 2013\PROJECTS\MASS-SPRING SYSTEM\MASS-SPRING SYSTEM\RELEASE\POINT.OBJ
C:\USERS\MINJU\DOCUMENTS\VISUAL STUDIO 2013\PROJECTS\MASS-SPRING SYSTEM\MASS-SPRING SYSTEM\RELEASE\MASSSPRINGSYSTEM.OBJ
^C:\USERS\MINJU\DOCUMENTS\VISUAL STUDIO 2013\PROJECTS\MASS-SPRING SYSTEM\MASS-SPRING SYSTEM\VECTOR.CPP
C:\USERS\MINJU\DOCUMENTS\VISUAL STUDIO 2013\PROJECTS\MASS-SPRING SYSTEM\MASS-SPRING SYSTEM\RELEASE\VC120.PDB
^C:\USERS\MINJU\DOCUMENTS\VISUAL STUDIO 2013\PROJECTS\MASS-SPRING SYSTEM\MASS-SPRING SYSTEM\MAIN.CPP|C:\USERS\MINJU\DOCUMENTS\VISUAL STUDIO 2013\PROJECTS\MASS-SPRING SYSTEM\MASS-SPRING SYSTEM\MASSSPRINGSYSTEM.CPP|C:\USERS\MINJU\DOCUMENTS\VISUAL STUDIO 2013\PROJECTS\MASS-SPRING SYSTEM\MASS-SPRING SYSTEM\POINT.CPP|C:\USERS\MINJU\DOCUMENTS\VISUAL STUDIO 2013\PROJECTS\MASS-SPRING SYSTEM\MASS-SPRING SYSTEM\SIMULATOR.CPP
C:\USERS\MINJU\DOCUMENTS\VISUAL STUDIO 2013\PROJECTS\MASS-SPRING SYSTEM\MASS-SPRING SYSTEM\RELEASE\VC120.PDB
C:\USERS\MINJU\DOCUMENTS\VISUAL STUDIO 2013\PROJECTS\MASS-SPRING SYSTEM\MASS-SPRING SYSTEM\RELEASE\MAIN.OBJ
C:\USERS\MINJU\DOCUMENTS\VISUAL STUDIO 2013\PROJECTS\MASS-SPRING SYSTEM\MASS-SPRING SYSTEM\RELEASE\SIMULATOR.OBJ
C:\USERS\MINJU\DOCUMENTS\VISUAL STUDIO 2013\PROJECTS\MASS-SPRING SYSTEM\MASS-SPRING SYSTEM\RELEASE\POINT.OBJ
C:\USERS\MINJU\DOCUMENTS\VISUAL STUDIO 2013\PROJECTS\MASS-SPRING SYSTEM\MASS-SPRING SYSTEM\RELEASE\MASSSPRINGSYSTEM.OBJ
^C:\USERS\MINJU\DOCUMENTS\VISUAL STUDIO 2013\PROJECTS\MASS-SPRING SYSTEM\MASS-SPRING SYSTEM\MASSSPRINGSYSTEM.CPP|C:\USERS\MINJU\DOCUMENTS\VISUAL STUDIO 2013\PROJECTS\MASS-SPRING SYSTEM\MASS-SPRING SYSTEM\POINT.CPP
C:\USERS\MINJU\DOCUMENTS\VISUAL STUDIO 2013\PROJECTS\MASS-SPRING SYSTEM\MASS-SPRING SYSTEM\RELEASE\VC120.PDB
C:\USERS\MINJU\DOCUMENTS\VISUAL STUDIO 2013\PROJECTS\MASS-SPRING SYSTEM\MASS-SPRING SYSTEM\RELEASE\POINT.OBJ
C:\USERS\MINJU\DOCUMENTS\VISUAL STUDIO 2013\PROJECTS\MASS-SPRING SYSTEM\MASS-SPRING SYSTEM\RELEASE\MASSSPRINGSYSTEM.OBJ
^C:\USERS\MINJU\DOCUMENTS\VISUAL STUDIO 2013\PROJECTS\MASS-SPRING SYSTEM\MASS-SPRING SYSTEM\POINT.CPP
C:\USERS\MINJU\DOCUMENTS\VISUAL STUDIO 2013\PROJECTS\MASS-SPRING SYSTEM\MASS-SPRING SYSTEM\RELEASE\VC120.PDB
^C:\USERS\MINJU\DOCUMENTS\VISUAL STUDIO 2013\PROJECTS\MASS-SPRING SYSTEM\MASS-SPRING SYSTEM\MASSSPRINGSYSTEM.CPP|C:\USERS\MINJU\DOCUMENTS\VISUAL STUDIO 2013\PROJECTS\MASS-SPRING SYSTEM\MASS-SPRING SYSTEM\SIMULATOR.CPP
C:\USERS\MINJU\DOCUMENTS\VISUAL STUDIO 2013\PROJECTS\MASS-SPRING SYSTEM\MASS-SPRING SYSTEM\RELEASE\VC120.PDB
C:\USERS\MINJU\DOCUMENTS\VISUAL STUDIO 2013\PROJECTS\MASS-SPRING SYSTEM\MASS-SPRING SYSTEM\RELEASE\SIMULATOR.OBJ
C:\USERS\MINJU\DOCUMENTS\VISUAL STUDIO 2013\PROJECTS\MASS-SPRING SYSTEM\MASS-SPRING SYSTEM\RELEASE\MASSSPRINGSYSTEM.OBJ
^C:\USERS\MINJU\DOCUMENTS\VISUAL STUDIO 2013\PROJECTS\MASS-SPRING SYSTEM\MASS-SPRING SYSTEM\MAIN.CPP|C:\USERS\MINJU\DOCUMENTS\VISUAL STUDIO 2013\PROJECTS\MASS-SPRING SYSTEM\MASS-SPRING SYSTEM\MASSSPRINGSYSTEM.CPP|C:\USERS\MINJU\DOCUMENTS\VISUAL STUDIO 2013\PROJECTS\MASS-SPRING SYSTEM\MASS-SPRING SYSTEM\SIMULATOR.CPP
C:\USERS\MINJU\DOCUMENTS\VISUAL STUDIO 2013\PROJECTS\MASS-SPRING SYSTEM\MASS-SPRING SYSTEM\RELEASE\VC120.PDB
C:\USERS\MINJU\DOCUMENTS\VISUAL STUDIO 2013\PROJECTS\MASS-SPRING SYSTEM\MASS-SPRING SYSTEM\RELEASE\MAIN.OBJ
C:\USERS\MINJU\DOCUMENTS\VISUAL STUDIO 2013\PROJECTS\MASS-SPRING SYSTEM\MASS-SPRING SYSTEM\RELEASE\SIMULATOR.OBJ
C:\USERS\MINJU\DOCUMENTS\VISUAL STUDIO 2013\PROJECTS\MASS-SPRING SYSTEM\MASS-SPRING SYSTEM\RELEASE\MASSSPRINGSYSTEM.OBJ
^C:\USERS\MINJU\DOCUMENTS\VISUAL STUDIO 2013\PROJECTS\MASS-SPRING SYSTEM\MASS-SPRING SYSTEM\MAIN.CPP
C:\USERS\MINJU\DOCUMENTS\VISUAL STUDIO 2013\PROJECTS\MASS-SPRING SYSTEM\MASS-SPRING SYSTEM\RELEASE\VC120.PDB
^C:\USERS\MINJU\DOCUMENTS\VISUAL STUDIO 2013\PROJECTS\MASS-SPRING SYSTEM\MASS-SPRING SYSTEM\SIMULATOR.CPP
C:\USERS\MINJU\DOCUMENTS\VISUAL STUDIO 2013\PROJECTS\MASS-SPRING SYSTEM\MASS-SPRING SYSTEM\RELEASE\VC120.PDB
C:\USERS\MINJU\DOCUMENTS\VISUAL STUDIO 2013\PROJECTS\MASS-SPRING SYSTEM\MASS-SPRING SYSTEM\RELEASE\SIMULATOR.OBJ
^C:\USERS\MINJU\DOCUMENTS\VISUAL STUDIO 2013\PROJECTS\MASS-SPRING SYSTEM\MASS-SPRING SYSTEM\MASSSPRINGSYSTEM.CPP
C:\USERS\MINJU\DOCUMENTS\VISUAL STUDIO 2013\PROJECTS\MASS-SPRING SYSTEM\MASS-SPRING SYSTEM\RELEASE\VC120.PDB
C:\USERS\MINJU\DOCUMENTS\VISUAL STUDIO 2013\PROJECTS\MASS-SPRING SYSTEM\MASS-SPRING SYSTEM\RELEASE\MASSSPRINGSYSTEM.OBJ
