^C:\USERS\MINJU\DOCUMENTS\VISUAL STUDIO 2013\PROJECTS\MASS-SPRING SYSTEM\MASS-SPRING SYSTEM\RELEASE\FILEMANAGER.OBJ|C:\USERS\MINJU\DOCUMENTS\VISUAL STUDIO 2013\PROJECTS\MASS-SPRING SYSTEM\MASS-SPRING SYSTEM\RELEASE\MAIN.OBJ|C:\USERS\MINJU\DOCUMENTS\VISUAL STUDIO 2013\PROJECTS\MASS-SPRING SYSTEM\MASS-SPRING SYSTEM\RELEASE\MASSSPRINGSYSTEM.OBJ|C:\USERS\MINJU\DOCUMENTS\VISUAL STUDIO 2013\PROJECTS\MASS-SPRING SYSTEM\MASS-SPRING SYSTEM\RELEASE\POINT.OBJ|C:\USERS\MINJU\DOCUMENTS\VISUAL STUDIO 2013\PROJECTS\MASS-SPRING SYSTEM\MASS-SPRING SYSTEM\RELEASE\SIMULATOR.OBJ|C:\USERS\MINJU\DOCUMENTS\VISUAL STUDIO 2013\PROJECTS\MASS-SPRING SYSTEM\MASS-SPRING SYSTEM\RELEASE\SPRING.OBJ|C:\USERS\MINJU\DOCUMENTS\VISUAL STUDIO 2013\PROJECTS\MASS-SPRING SYSTEM\MASS-SPRING SYSTEM\RELEASE\VECTOR.OBJ
C:\USERS\MINJU\DOCUMENTS\VISUAL STUDIO 2013\PROJECTS\MASS-SPRING SYSTEM\RELEASE\MASS-SPRING SYSTEM.EXE
C:\USERS\MINJU\DOCUMENTS\VISUAL STUDIO 2013\PROJECTS\MASS-SPRING SYSTEM\RELEASE\MASS-SPRING SYSTEM.PDB
