^C:\USERS\PARK\DOCUMENTS\VISUAL STUDIO 2013\PROJECTS\MASS-SPRING SYSTEM\MASS-SPRING SYSTEM\MAIN.CPP|C:\USERS\PARK\DOCUMENTS\VISUAL STUDIO 2013\PROJECTS\MASS-SPRING SYSTEM\MASS-SPRING SYSTEM\MSSSPRINGSYSTEM.CPP|C:\USERS\PARK\DOCUMENTS\VISUAL STUDIO 2013\PROJECTS\MASS-SPRING SYSTEM\MASS-SPRING SYSTEM\POINT.CPP|C:\USERS\PARK\DOCUMENTS\VISUAL STUDIO 2013\PROJECTS\MASS-SPRING SYSTEM\MASS-SPRING SYSTEM\SPRING.CPP|C:\USERS\PARK\DOCUMENTS\VISUAL STUDIO 2013\PROJECTS\MASS-SPRING SYSTEM\MASS-SPRING SYSTEM\VECTOR.CPP
C:\USERS\PARK\DOCUMENTS\VISUAL STUDIO 2013\PROJECTS\MASS-SPRING SYSTEM\MASS-SPRING SYSTEM\DEBUG\VC120.PDB
C:\USERS\PARK\DOCUMENTS\VISUAL STUDIO 2013\PROJECTS\MASS-SPRING SYSTEM\MASS-SPRING SYSTEM\DEBUG\VC120.IDB
C:\USERS\PARK\DOCUMENTS\VISUAL STUDIO 2013\PROJECTS\MASS-SPRING SYSTEM\MASS-SPRING SYSTEM\DEBUG\MAIN.OBJ
C:\USERS\PARK\DOCUMENTS\VISUAL STUDIO 2013\PROJECTS\MASS-SPRING SYSTEM\MASS-SPRING SYSTEM\DEBUG\POINT.OBJ
C:\USERS\PARK\DOCUMENTS\VISUAL STUDIO 2013\PROJECTS\MASS-SPRING SYSTEM\MASS-SPRING SYSTEM\DEBUG\SPRING.OBJ
C:\USERS\PARK\DOCUMENTS\VISUAL STUDIO 2013\PROJECTS\MASS-SPRING SYSTEM\MASS-SPRING SYSTEM\DEBUG\VECTOR.OBJ
^C:\USERS\PARK\DOCUMENTS\VISUAL STUDIO 2013\PROJECTS\MASS-SPRING SYSTEM\MASS-SPRING SYSTEM\MAIN.CPP
C:\USERS\PARK\DOCUMENTS\VISUAL STUDIO 2013\PROJECTS\MASS-SPRING SYSTEM\MASS-SPRING SYSTEM\DEBUG\VC120.PDB
C:\USERS\PARK\DOCUMENTS\VISUAL STUDIO 2013\PROJECTS\MASS-SPRING SYSTEM\MASS-SPRING SYSTEM\DEBUG\VC120.IDB
C:\USERS\PARK\DOCUMENTS\VISUAL STUDIO 2013\PROJECTS\MASS-SPRING SYSTEM\MASS-SPRING SYSTEM\DEBUG\MAIN.OBJ
^C:\USERS\PARK\DOCUMENTS\VISUAL STUDIO 2013\PROJECTS\MASS-SPRING SYSTEM\MASS-SPRING SYSTEM\MSSSPRINGSYSTEM.CPP
C:\USERS\PARK\DOCUMENTS\VISUAL STUDIO 2013\PROJECTS\MASS-SPRING SYSTEM\MASS-SPRING SYSTEM\DEBUG\VC120.PDB
^C:\USERS\PARK\DOCUMENTS\VISUAL STUDIO 2013\PROJECTS\MASS-SPRING SYSTEM\MASS-SPRING SYSTEM\POINT.CPP
C:\USERS\PARK\DOCUMENTS\VISUAL STUDIO 2013\PROJECTS\MASS-SPRING SYSTEM\MASS-SPRING SYSTEM\DEBUG\VC120.PDB
^C:\USERS\PARK\DOCUMENTS\VISUAL STUDIO 2013\PROJECTS\MASS-SPRING SYSTEM\MASS-SPRING SYSTEM\SPRING.CPP
C:\USERS\PARK\DOCUMENTS\VISUAL STUDIO 2013\PROJECTS\MASS-SPRING SYSTEM\MASS-SPRING SYSTEM\DEBUG\VC120.PDB
^C:\USERS\PARK\DOCUMENTS\VISUAL STUDIO 2013\PROJECTS\MASS-SPRING SYSTEM\MASS-SPRING SYSTEM\VECTOR.CPP
C:\USERS\PARK\DOCUMENTS\VISUAL STUDIO 2013\PROJECTS\MASS-SPRING SYSTEM\MASS-SPRING SYSTEM\DEBUG\VC120.PDB
^C:\USERS\PARK\DOCUMENTS\VISUAL STUDIO 2013\PROJECTS\MASS-SPRING SYSTEM\MASS-SPRING SYSTEM\MAIN.CPP|C:\USERS\PARK\DOCUMENTS\VISUAL STUDIO 2013\PROJECTS\MASS-SPRING SYSTEM\MASS-SPRING SYSTEM\MASSSPRINGSYSTEM.CPP|C:\USERS\PARK\DOCUMENTS\VISUAL STUDIO 2013\PROJECTS\MASS-SPRING SYSTEM\MASS-SPRING SYSTEM\POINT.CPP|C:\USERS\PARK\DOCUMENTS\VISUAL STUDIO 2013\PROJECTS\MASS-SPRING SYSTEM\MASS-SPRING SYSTEM\SPRING.CPP
C:\USERS\PARK\DOCUMENTS\VISUAL STUDIO 2013\PROJECTS\MASS-SPRING SYSTEM\MASS-SPRING SYSTEM\DEBUG\VC120.PDB
C:\USERS\PARK\DOCUMENTS\VISUAL STUDIO 2013\PROJECTS\MASS-SPRING SYSTEM\MASS-SPRING SYSTEM\DEBUG\VC120.IDB
C:\USERS\PARK\DOCUMENTS\VISUAL STUDIO 2013\PROJECTS\MASS-SPRING SYSTEM\MASS-SPRING SYSTEM\DEBUG\MAIN.OBJ
C:\USERS\PARK\DOCUMENTS\VISUAL STUDIO 2013\PROJECTS\MASS-SPRING SYSTEM\MASS-SPRING SYSTEM\DEBUG\MASSSPRINGSYSTEM.OBJ
C:\USERS\PARK\DOCUMENTS\VISUAL STUDIO 2013\PROJECTS\MASS-SPRING SYSTEM\MASS-SPRING SYSTEM\DEBUG\POINT.OBJ
C:\USERS\PARK\DOCUMENTS\VISUAL STUDIO 2013\PROJECTS\MASS-SPRING SYSTEM\MASS-SPRING SYSTEM\DEBUG\SPRING.OBJ
^C:\USERS\PARK\DOCUMENTS\VISUAL STUDIO 2013\PROJECTS\MASS-SPRING SYSTEM\MASS-SPRING SYSTEM\MASSSPRINGSYSTEM.CPP
C:\USERS\PARK\DOCUMENTS\VISUAL STUDIO 2013\PROJECTS\MASS-SPRING SYSTEM\MASS-SPRING SYSTEM\DEBUG\VC120.PDB
C:\USERS\PARK\DOCUMENTS\VISUAL STUDIO 2013\PROJECTS\MASS-SPRING SYSTEM\MASS-SPRING SYSTEM\DEBUG\VC120.IDB
C:\USERS\PARK\DOCUMENTS\VISUAL STUDIO 2013\PROJECTS\MASS-SPRING SYSTEM\MASS-SPRING SYSTEM\DEBUG\MASSSPRINGSYSTEM.OBJ
^C:\USERS\PARK\DOCUMENTS\VISUAL STUDIO 2013\PROJECTS\MASS-SPRING SYSTEM\MASS-SPRING SYSTEM\MAIN.CPP|C:\USERS\PARK\DOCUMENTS\VISUAL STUDIO 2013\PROJECTS\MASS-SPRING SYSTEM\MASS-SPRING SYSTEM\MASSSPRINGSYSTEM.CPP
C:\USERS\PARK\DOCUMENTS\VISUAL STUDIO 2013\PROJECTS\MASS-SPRING SYSTEM\MASS-SPRING SYSTEM\DEBUG\VC120.PDB
C:\USERS\PARK\DOCUMENTS\VISUAL STUDIO 2013\PROJECTS\MASS-SPRING SYSTEM\MASS-SPRING SYSTEM\DEBUG\VC120.IDB
C:\USERS\PARK\DOCUMENTS\VISUAL STUDIO 2013\PROJECTS\MASS-SPRING SYSTEM\MASS-SPRING SYSTEM\DEBUG\MASSSPRINGSYSTEM.OBJ
C:\USERS\PARK\DOCUMENTS\VISUAL STUDIO 2013\PROJECTS\MASS-SPRING SYSTEM\MASS-SPRING SYSTEM\DEBUG\MAIN.OBJ
